<svg xmlns="http://www.w3.org/2000/svg" width="24" height="24" viewBox="0 0 24 24">
  <g id="icon-fs" transform="translate(-195 -198)">
    <rect id="Rectangle_1539" data-name="Rectangle 1539" width="24" height="24" transform="translate(195 198)" fill="none"/>
    <path id="Path_1507" data-name="Path 1507" d="M23,21.5H1a1,1,0,0,1-1-1V3.5a1,1,0,0,1,1-1h9.706a1,1,0,0,1,.722.308l2.124,2.218H23a1,1,0,0,1,1,1V20.5A1,1,0,0,1,23,21.5Zm-21-2H22V7.026H2Z" transform="translate(195 197.5)" fill="#595959"/>
    <g id="Group_4299" data-name="Group 4299" transform="translate(147.2 143.592)">
      <path id="Path_1503" data-name="Path 1503" d="M58.992,64.48v.592H56.528v1.951h2.088v.569H56.528V70.12H55.8V64.48Z" fill="#595959"/>
      <path id="Path_1504" data-name="Path 1504" d="M63.552,69.4a1.45,1.45,0,0,1-.584.56,1.982,1.982,0,0,1-.968.216,2.356,2.356,0,0,1-1-.2,1.781,1.781,0,0,1-.7-.561,1.58,1.58,0,0,1-.3-.812h.776a1.088,1.088,0,0,0,.164.468,1.076,1.076,0,0,0,.4.376,1.244,1.244,0,0,0,.628.148,1,1,0,0,0,.736-.256.885.885,0,0,0,.256-.656.846.846,0,0,0-.18-.56,1.282,1.282,0,0,0-.444-.34,5.81,5.81,0,0,0-.72-.268,7.247,7.247,0,0,1-.86-.332,1.468,1.468,0,0,1-.552-.468,1.364,1.364,0,0,1-.228-.823,1.428,1.428,0,0,1,.212-.777,1.4,1.4,0,0,1,.608-.52,2.2,2.2,0,0,1,.932-.184,2,2,0,0,1,1.32.405,1.547,1.547,0,0,1,.568,1.027H62.84a1.061,1.061,0,0,0-.344-.592,1.085,1.085,0,0,0-.76-.256,1.034,1.034,0,0,0-.7.229A.912.912,0,0,0,60.94,66.4a1.207,1.207,0,0,0,.428.321,7.5,7.5,0,0,0,.7.26,6.839,6.839,0,0,1,.876.336,1.476,1.476,0,0,1,.564.483,1.445,1.445,0,0,1,.232.86A1.5,1.5,0,0,1,63.552,69.4Z" fill="#595959"/>
    </g>
  </g>
</svg>
