<svg xmlns="http://www.w3.org/2000/svg" width="24" height="24" viewBox="0 0 24 24">
  <g id="Group_4301" data-name="Group 4301" transform="translate(-68 -177)">
    <rect id="Rectangle_1542" data-name="Rectangle 1542" width="24" height="24" transform="translate(68 177)" fill="none"/>
    <path id="Path_1505" data-name="Path 1505" d="M23,21.5H1a1,1,0,0,1-1-1V3.5a1,1,0,0,1,1-1h9.706a1,1,0,0,1,.722.308l2.124,2.218H23a1,1,0,0,1,1,1V20.5A1,1,0,0,1,23,21.5Zm-21-2H22V7.026H2Z" transform="translate(68 177.5)" fill="#595959"/>
    <g id="Group_4300" data-name="Group 4300" transform="translate(87.392 123.592)">
      <path id="Path_1497" data-name="Path 1497" d="M-9,64.932a2.592,2.592,0,0,1,.928,1.388H-8.84a1.881,1.881,0,0,0-.7-.892,2.017,2.017,0,0,0-1.176-.332,1.855,1.855,0,0,0-.988.268,1.862,1.862,0,0,0-.688.769,2.563,2.563,0,0,0-.252,1.172,2.535,2.535,0,0,0,.252,1.16,1.879,1.879,0,0,0,.688.764,1.863,1.863,0,0,0,.988.267,2.017,2.017,0,0,0,1.176-.332,1.874,1.874,0,0,0,.7-.893h.768A2.591,2.591,0,0,1-9,69.66a2.744,2.744,0,0,1-1.7.508,2.68,2.68,0,0,1-1.4-.363,2.51,2.51,0,0,1-.948-1.017,3.166,3.166,0,0,1-.34-1.483,3.208,3.208,0,0,1,.34-1.5,2.5,2.5,0,0,1,.948-1.021,2.671,2.671,0,0,1,1.4-.364A2.751,2.751,0,0,1-9,64.932Z" fill="#595959"/>
      <path id="Path_1498" data-name="Path 1498" d="M-2.78,64.775a2.62,2.62,0,0,1,.988,1.03,3.06,3.06,0,0,1,.36,1.491,3.061,3.061,0,0,1-.36,1.492,2.614,2.614,0,0,1-.988,1.028,2.737,2.737,0,0,1-1.412.368,2.776,2.776,0,0,1-1.42-.368,2.6,2.6,0,0,1-1-1.028,3.061,3.061,0,0,1-.36-1.492,3.06,3.06,0,0,1,.36-1.491,2.605,2.605,0,0,1,1-1.03,2.8,2.8,0,0,1,1.42-.367A2.755,2.755,0,0,1-2.78,64.775Zm-2.456.58a1.865,1.865,0,0,0-.72.769,2.5,2.5,0,0,0-.26,1.172,2.514,2.514,0,0,0,.26,1.169,1.841,1.841,0,0,0,.72.771,2.031,2.031,0,0,0,1.044.268,1.994,1.994,0,0,0,1.036-.272,1.877,1.877,0,0,0,.719-.772A2.482,2.482,0,0,0-2.176,67.3a2.5,2.5,0,0,0-.261-1.172,1.863,1.863,0,0,0-.719-.769,2.039,2.039,0,0,0-1.036-.267A2.05,2.05,0,0,0-5.236,65.355Z" fill="#595959"/>
    </g>
  </g>
</svg>
