<svg xmlns="http://www.w3.org/2000/svg" width="24" height="24" viewBox="0 0 24 24">
  <g id="icon-tx" transform="translate(-228 -198)">
    <rect id="Rectangle_1540" data-name="Rectangle 1540" width="24" height="24" transform="translate(228 198)" fill="none"/>
    <path id="Path_1508" data-name="Path 1508" d="M23,21.5H1a1,1,0,0,1-1-1V3.5a1,1,0,0,1,1-1h9.706a1,1,0,0,1,.722.308l2.124,2.218H23a1,1,0,0,1,1,1V20.5A1,1,0,0,1,23,21.5Zm-21-2H22V7.026H2Z" transform="translate(228 197.5)" fill="#595959"/>
    <g id="Group_4294" data-name="Group 4294" transform="translate(163.656 143.592)">
      <path id="Path_1493" data-name="Path 1493" d="M76.256,64.48v.592H74.664V70.12h-.727V65.072H72.344V64.48Z" fill="#595959"/>
      <path id="Path_1494" data-name="Path 1494" d="M80.44,70.12l-1.416-2.231L77.736,70.12H76.9l1.72-2.872L76.864,64.48h.872l1.384,2.192,1.3-2.192h.84l-1.728,2.825L81.3,70.12Z" fill="#595959"/>
    </g>
  </g>
</svg>
